{
  "info": {
    "_postman_id": "405ea021-8e75-418f-9116-82ec9bbed6a1",
    "name": "MyGreenCollection",
    "schema": "https://schema.getpostman.com/json/collection/v2.0.0/collection.json"
  },
  "item": [
    {
      "name": "Greenpeace.org Website",
      "_postman_id": "5afa98bd-ed72-4a1c-9f7a-9254561cc410",
      "protocolProfileBehavior": {
        "disableBodyPruning": true
      },
      "request": {
        "method": "GET",
        "header": [],
        "url": "https://www.greenpeace.org/argentina/"
      },
      "response": []
    }
  ]
}